{
  "page": 1,
  "total_results": 19568,
  "total_pages": 1958,
  "results": [
    {
      "id": 2,
      "vote_count": 64,
      "video": false,
      "vote_average": 6.9,
      "title": "Ariel",
      "popularity": 4.373,
      "original_language": "fi",
      "original_title": "Ariel",
      "genre_ids": [
        18,
        80
      ],
      "adult": false,
      "overview": "Taisto Kasurinen is a Finnish coal miner whose father has just committed suicide and who is framed for a crime he did not commit. In jail, he starts to dream about leaving the country and starting a new life. He escapes from prison but things don't go as planned...",
      "release_date": [
        1988,
        10,
        21
      ]
    },
    {
      "id": 3,
      "vote_count": 46,
      "video": false,
      "vote_average": 7.3,
      "title": "Shadows in Paradise",
      "popularity": 2.775,
      "original_language": "fi",
      "original_title": "Varjoja paratiisissa",
      "genre_ids": [
        18,
        35
      ],
      "adult": false,
      "overview": "An episode in the life of Nikander, a garbage man, involving the death of a co-worker, an affair and much more.",
      "release_date": [
        1986,
        10,
        16
      ]
    },
    {
      "id": 5,
      "vote_count": 927,
      "video": false,
      "vote_average": 6.4,
      "title": "Four Rooms",
      "popularity": 6.865,
      "original_language": "en",
      "original_title": "Four Rooms",
      "genre_ids": [
        80,
        35
      ],
      "adult": false,
      "overview": "It's Ted the Bellhop's first night on the job...and the hotel's very unusual guests are about to place him in some outrageous predicaments. It seems that this evening's room service is serving up one unbelievable happening after another.",
      "release_date": [
        1995,
        12,
        9
      ]
    },
    {
      "id": 6,
      "vote_count": 105,
      "video": false,
      "vote_average": 6.5,
      "title": "Judgment Night",
      "popularity": 5.333,
      "original_language": "en",
      "original_title": "Judgment Night",
      "genre_ids": [
        28,
        53,
        80
      ],
      "adult": false,
      "overview": "While racing to a boxing match, Frank, Mike, John and Rey get more than they bargained for. A wrong turn lands them directly in the path of Fallon, a vicious, wise-cracking drug lord. After accidentally witnessing Fallon murder a disloyal henchman, the four become his unwilling prey in a savage game of cat & mouse as they are mercilessly stalked through the urban jungle in this taut suspense drama",
      "release_date": [
        1993,
        10,
        15
      ]
    },
    {
      "id": 11,
      "vote_count": 9969,
      "video": false,
      "vote_average": 8.2,
      "title": "Star Wars",
      "popularity": 30.036,
      "original_language": "en",
      "original_title": "Star Wars",
      "genre_ids": [
        12,
        28,
        878
      ],
      "adult": false,
      "overview": "Princess Leia is captured and held hostage by the evil Imperial forces in their effort to take over the galactic Empire. Venturesome Luke Skywalker and dashing captain Han Solo team together with the loveable robot duo R2-D2 and C-3PO to rescue the beautiful princess and restore peace and justice in the Empire.",
      "release_date": [
        1977,
        5,
        25
      ]
    },
    {
      "id": 12,
      "vote_count": 9779,
      "video": false,
      "vote_average": 7.7,
      "title": "Finding Nemo",
      "popularity": 19.609,
      "original_language": "en",
      "original_title": "Finding Nemo",
      "genre_ids": [
        16,
        10751
      ],
      "adult": false,
      "overview": "Nemo, an adventurous young clownfish, is unexpectedly taken from his Great Barrier Reef home to a dentist's office aquarium. It's up to his worrisome father Marlin and a friendly but forgetful fish Dory to bring Nemo home -- meeting vegetarian sharks, surfer dude turtles, hypnotic jellyfish, hungry seagulls, and more along the way.",
      "release_date": [
        2003,
        5,
        30
      ]
    },
    {
      "id": 13,
      "vote_count": 12322,
      "video": false,
      "vote_average": 8.4,
      "title": "Forrest Gump",
      "popularity": 27.306,
      "original_language": "en",
      "original_title": "Forrest Gump",
      "genre_ids": [
        35,
        18,
        10749
      ],
      "adult": false,
      "overview": "A man with a low IQ has accomplished great things in his life and been present during significant historic events—in each case, far exceeding what anyone imagined he could do. But despite all he has achieved, his one true love eludes him.",
      "release_date": [
        1994,
        7,
        6
      ]
    },
    {
      "id": 14,
      "vote_count": 5445,
      "video": false,
      "vote_average": 8.0,
      "title": "American Beauty",
      "popularity": 14.137,
      "original_language": "en",
      "original_title": "American Beauty",
      "genre_ids": [
        18
      ],
      "adult": false,
      "overview": "Lester Burnham, a depressed suburban father in a mid-life crisis, decides to turn his hectic life around after developing an infatuation with his daughter's attractive friend.",
      "release_date": [
        1999,
        9,
        15
      ]
    },
    {
      "id": 15,
      "vote_count": 1974,
      "video": false,
      "vote_average": 8.1,
      "title": "Citizen Kane",
      "popularity": 10.286,
      "original_language": "en",
      "original_title": "Citizen Kane",
      "genre_ids": [
        9648,
        18
      ],
      "adult": false,
      "overview": "Newspaper magnate, Charles Foster Kane is taken from his mother as a boy and made the ward of a rich industrialist. As a result, every well-meaning, tyrannical or self-destructive move he makes for the rest of his life appears in some way to be a reaction to that deeply wounding event.",
      "release_date": [
        1941,
        4,
        30
      ]
    },
    {
      "id": 16,
      "vote_count": 638,
      "video": false,
      "vote_average": 7.9,
      "title": "Dancer in the Dark",
      "popularity": 6.474,
      "original_language": "en",
      "original_title": "Dancer in the Dark",
      "genre_ids": [
        18,
        80,
        10402
      ],
      "adult": false,
      "overview": "Selma, a Czech immigrant on the verge of blindness, struggles to make ends meet for herself and her son, who has inherited the same genetic disorder and will suffer the same fate without an expensive operation. When life gets too difficult, Selma learns to cope through her love of musicals, escaping life's troubles - even if just for a moment - by dreaming up little numbers to the rhythmic beats of her surroundings.",
      "release_date": [
        2000,
        5,
        17
      ]
    }
  ]
}